module ep-backend

go 1.19

require (
	github.com/bwmarrin/snowflake v0.3.0
	github.com/gin-contrib/cors v1.4.0
	github.com/gin-contrib/sessions v0.0.5
	github.com/gin-gonic/gin v1.8.2
	github.com/go-sql-driver/mysql v1.7.0
	github.com/joho/godotenv v1.4.0
	golang.org/x/crypto v0.5.0
)

require (
	github.com/gin-contrib/sse v0.1.0 // indirect
	github.com/go-playground/locales v0.14.0 // indirect
	github.com/go-playground/universal-translator v0.18.0 // indirect
	github.com/go-playground/validator/v10 v10.11.1 // indirect
	github.com/goccy/go-json v0.9.11 // indirect
	github.com/gofrs/uuid v3.2.0+incompatible // indirect
	github.com/google/uuid v1.1.1 // indirect
	github.com/gorilla/context v1.1.1 // indirect
	github.com/gorilla/securecookie v1.1.1 // indirect
	github.com/gorilla/sessions v1.2.1 // indirect
	github.com/gorilla/websocket v1.5.0 // indirect
	github.com/json-iterator/go v1.1.12 // indirect
	github.com/juju/errors v1.0.0 // indirect
	github.com/leodido/go-urn v1.2.1 // indirect
	github.com/loopfz/gadgeto v0.9.0 // indirect
	github.com/mattn/go-isatty v0.0.16 // indirect
	github.com/modern-go/concurrent v0.0.0-20180306012644-bacd9c7ef1dd // indirect
	github.com/modern-go/reflect2 v1.0.2 // indirect
	github.com/pelletier/go-toml/v2 v2.0.6 // indirect
	github.com/rakyll/statik v0.1.7 // indirect
	github.com/ribice/golang-swaggerui-example v0.0.0-20180611180427-1e7622a30e50 // indirect
	github.com/ugorji/go/codec v1.2.7 // indirect
	github.com/wI2L/fizz v0.22.0 // indirect
	golang.org/x/net v0.5.0 // indirect
	golang.org/x/sys v0.4.0 // indirect
	golang.org/x/text v0.6.0 // indirect
	google.golang.org/protobuf v1.28.1 // indirect
	gopkg.in/go-playground/validator.v9 v9.30.0 // indirect
	gopkg.in/yaml.v2 v2.4.0 // indirect
)
